"Mlp124497_SRR12697078"
"Mlp37347"	0
"Mlp72983"	0
"Mlp102036"	0
"Mlp106078"	0
"Mlp123218"	0
"Mlp123227"	0
"Mlp123531"	0
"Mlp124256"	0
"Mlp124266"	0
"Mlp124357"	0
"Mlp124466"	0
"Mlp124497"	0
"Mlp124499"	0
"Mlp124518"	0
"BAR"	2948
